{
    "index": {
        "download_fdroid": "F-Droid herunterladen",
        "gpg_signature": "PGP-Signatur",
        "introduction": "F-Droid ist ein installierbarer Katalog mit FOSS-Apps (Free and Open Source Software) für Android. Der Client vereinfacht die Suche und Installation von Apps und behält den Überblick über Aktualisierungen.",
        "screenshot": "F-Droid App-Screenshot",
        "title": "Was ist F-Droid?"
    },
    "navigation": {
        "about": "Über",
        "browse": "Entdecken",
        "contribute": "Mitmachen",
        "documentation": "Dokumentation",
        "forum": "Forum",
        "issues": "Tickets",
        "news": "Neuigkeiten"
    },
    "package": {
        "anti_features": "Unerwünschte Merkmale",
        "anti_features_warning": "Diese Anwendung besitzt Merkmale, die möglicherweise unerwünscht sind.",
        "author": "Autor",
        "build_metadata": "Metadaten der Paketerstellung",
        "changelog": "Änderungen",
        "donate": "Spenden",
        "download": "[file_extension] herunterladen",
        "flattr": "Flattr",
        "gpg_signature": "PGP-Signatur",
        "issue_tracker": "Ticketsystem",
        "liberapay": "Liberapay",
        "license": "Lizenz",
        "minimum_android_version": "Diese Version benötigt Android [android_version] oder neuer.",
        "new_in_version": "Neu in Version [latest_version]",
        "packages": "Pakete",
        "permissions": "Berechtigungen",
        "signed_by_developer": "Sie ist vom Originalentwickler hergestellt und signiert.",
        "signed_by_fdroid": "Sie ist von F-Droid hergestellt, signiert und ihre Übereinstimmung mit <a href=\"[source_code_url]\">diesem Quelltext-Tarball</a> wird garantiert.",
        "source_code": "Quelltext",
        "suggest_downloading_via_fdroid": "Um Ihnen die Wahl zu lassen, können Sie weiter unten auf dieser Seite APKs direkt herunterladen, sollten sich allerdings darüber im Klaren sein, dass Sie nach einer solchen Installation keine Benachrichtigungen über Aktualisierungen erhalten werden und diese Art des Downloads weniger Sicherheit bietet. Wir empfehlen daher, stattdessen die F-Droid-App zu installieren und diese dafür zu nutzen.",
        "technical_info": "Technische Informationen",
        "translation": "Übersetzen",
        "version_info": "<b>Version [package_version]</b> ([package_version_code]) - Hinzugefügt am [package_added_date]",
        "website": "Internetseite"
    },
    "sidebars": {
        "donate": {
            "bank_transfer_name": "Name",
            "bitcoin_alt": "Über Bitcoin spenden",
            "flattr_alt": "Über Flattr spenden",
            "heading": "Spenden",
            "hellotux": "👕 T-Shirts 👕 von",
            "hellotux_alt": "HELLOTUX",
            "hellotux_donation": "F-Droid erhält 3 € pro verkauftes Shirt.",
            "liberapay_alt": "Über Liberapay spenden",
            "litecoin_alt": "Über Litecoin spenden",
            "paypal_alt": "Über PayPal spenden",
            "powered_by_donations": "F-Droid wird durch Ihre Spenden unterstützt!",
            "via_bank_transfer": "Überweisung"
        },
        "lang": {
            "change": "Ändern"
        },
        "last_updated": {
            "heading": "Zuletzt aktualisiert"
        },
        "latest_packages": {
            "heading": "Neuvorstellungen"
        },
        "news": {
            "heading": "Neuigkeiten"
        },
        "search": {
            "heading": "Apps finden",
            "noscript": "Erfordert die Aktivierung von JavaScript",
            "search": "Suchen"
        }
    }
}
