{
    "index": {
        "download_fdroid": "Deskargatu F-Droid",
        "gpg_signature": "PGP sinadura",
        "introduction": "F-Droid instalatu daitekeen Android plataformarako aplikazio libreen edo FOSS (Free and Open Source Software) katalogo bat da. Bezero honek zure gailuan aplikazio hauek erraz bilatu, instalatu eta eguneratzea ahalbidetzen dizu.",
        "screenshot": "Android-erako F-Droid-en pantaila-argazkiak",
        "title": "Zer da F-Droid?"
    },
    "navigation": {
        "about": "Honi buruz",
        "browse": "Arakatu",
        "contribute": "Hartu parte",
        "documentation": "Dokumentuak",
        "forum": "Foroa",
        "issues": "Arazoak",
        "news": "Berriak"
    },
    "package": {
        "anti_features": "Ezaugarri zalantzagarriak",
        "anti_features_warning": "Aplikazio honek agian gustuko ez dituzun ezaugarriak ditu.",
        "author": "Egilea",
        "build_metadata": "Konpilazioaren metadatuak",
        "changelog": "Aldaketa-egunkaria",
        "donate": "Dohaintza",
        "download": "Deskargatu [file_extension]",
        "flattr": "Flattr",
        "gpg_signature": "PGP sinadura",
        "issue_tracker": "Akats kudeatzailea",
        "liberapay": "Liberapay",
        "license": "Lizentzia",
        "minimum_android_version": "Bertsio honek Android [android_version] edo berriagoa behar du.",
        "new_in_version": "[latest_version] bertsioan berria",
        "packages": "Paketeak",
        "permissions": "Baimenak",
        "signed_by_developer": "Jatorrizko garatzaileak sortu eta sinatutakoa da.",
        "signed_by_fdroid": "F-Droid proiektuak sortu eta sinatutakoa da, eta <a href=\"[source_code_url]\">iturburuaren tarball honekin</a> bat datorrela bermatzen dugu.",
        "source_code": "Iturburu-kodea",
        "suggest_downloading_via_fdroid": "Behean APK fitxategiak deskargatzeko aukera ematen bazaizu ere, jakin hauek zuzenean instalatuz gero ez duzula eguneraketen berri jasoko eta deskargatzeko modu ez seguruagoa dela. F-Droid bezeroa instalatu eta berau erabiltzea aholkatzen dizugu.",
        "technical_info": "Informazio teknikoa",
        "translation": "Itzulpena",
        "version_info": "<b>[package_version] bertsioa</b> ([package_version_code]) - Gehitze data: [package_added_date]",
        "website": "Webgunea"
    },
    "sidebars": {
        "donate": {
            "bank_transfer_name": "Izena",
            "bitcoin_alt": "Bitcoin",
            "flattr_alt": "Flattr",
            "heading": "Dohaintza",
            "hellotux": "👕 Kamisetak 👕 salgai",
            "hellotux_alt": "HELLOTUX",
            "hellotux_donation": "F-Droidek 3€ jasoko ditu saldutako kamiseta bakoitzeko.",
            "liberapay_alt": "Liberapay",
            "litecoin_alt": "Litecoin bidezko dohaintza",
            "paypal_alt": "PayPal bidezko dohaintza",
            "powered_by_donations": "F-Droid zure dohaintzei esker dabil!",
            "via_bank_transfer": "Banku transferentzia"
        },
        "lang": {
            "change": "Aldatu"
        },
        "last_updated": {
            "heading": "Eguneratutako azkenak"
        },
        "latest_packages": {
            "heading": "Aplikazio berriak"
        },
        "news": {
            "heading": "Berriak"
        },
        "search": {
            "heading": "Bilatu aplikazioak",
            "noscript": "Javascript aktibatuta izatea behar du",
            "search": "Bilatu"
        }
    }
}
